Using SentinelHub • CopernicusDataspace
…
If you like to use a graphical user interface to prepare your
SentinelHub request, you can use the Requests-Builder
in your web browser. You can create a request through the provided menu
and it is shown in a text field. You can copy this text and submit it to
SentinelHub with dse_sh_use_requests_builder().

Eval Scripts

As mentioned above, there are many readily developed Eval
Scripts available. You can list the available scripts on the
repository using:

dse_sh_custom_scripts()
#> # A tibble: 361 × 2
#>    title                                                                  relUrl
#>    <chr>                                                                  <chr> 
#>  1 Sentinel-2 L2A Scene Classification Map                                /sent…
#>  2 NDVI Anomaly Detection Script                                          /sent…
#>  3 Simple RGB Composites (Sentinel-2)                                     /sent…
#>  4 Land Use Visualization for Sentinel-2 Using Linear Discriminant Analy… /sent…
#>  5 Multitemporal burnt area analysis                                      /sent…
#>  6 Sentinel-2 L2A True Color Optimized                                    /sent…
#>  7 NDWI Normalized Difference Water Index                                 /sent…
#>  8 Detecting Deep Moist Convection Script                                 /sent…
#>  9 Sentinel-2 L1C True Color Optimized                                    /sent…
#> 10 Water Bodies' Mapping - WBM Script                                     /sent…
#> # ℹ 351 more rows
…
