…
In general to understand which STAC client the server is offering, you
can call
[`dse_stac_client()`](https://pepijn-devries.github.io/CopernicusDataspace/reference/dse_stac_client.md).

## Data Exploration

A good starting point of exploring data with STAC is being aware which
collections of data are available in the first place. You can list them
as follows:

``` r

library(CopernicusDataspace)
dse_stac_collections()
#> # A tibble: 422 × 23
#>    id        type  links  title assets       extent   license keywords providers
#>    <chr>     <chr> <list> <chr> <list>       <list>   <chr>   <list>   <list>   
#>  1 ccm-opti… Coll… <list> Cope… <named list> <tibble> other   <list>   <list>   
#>  2 ccm-sar   Coll… <list> Cope… <named list> <tibble> other   <list>   <list>   
#>  3 clms_ba_… Coll… <list> CLMS… <named list> <tibble> other   <list>   <list>   
#>  4 clms_ba_… Coll… <list> CLMS… <named list> <tibble> other   <list>   <list>   
#>  5 clms_ba_… Coll… <list> CLMS… <named list> <tibble> other   <list>   <list>   
#>  6 clms_ba_… Coll… <list> CLMS… <named list> <tibble> other   <list>   <list>   
#>  7 clms_ba_… Coll… <list> CLMS… <named list> <tibble> other   <list>   <list>   
#>  8 clms_ba_… Coll… <list> CLMS… <named list> <tibble> other   <list>   <list>   
#>  9 clms_ba_… Coll… <list> CLMS… <named list> <tibble> other   <list>   <list>   
#> 10 clms_ba_… Coll… <list> CLMS… <named list> <tibble> other   <list>   <list>   
#> # ℹ 412 more rows
#> # ℹ 14 more variables: summaries <list>, description <chr>, item_assets <list>,
#> #   `auth:schemes` <list>, `ceosard:type` <list>, stac_version <chr>,
#> #   stac_extensions <list>, `storage:schemes` <list>, bands <list>,
#> #   `sci:doi` <list>, contacts <list>, `sci:citation` <list>,
#> #   `ceosard:specification` <list>, `ceosard:specification_version` <list>
```
…
